{
	"file": "https://bitbucket.org/niktabel/publicfiles/raw/b543134af66b0e28615a48bf1bbc4703207c80c7/NPC_.csv",
	"name": "LoI",
	"header": 0,
	"separator": ";",
	"skip": 0,
	"meta": [
		{ "type": "id", "index": 0, "name": "ID" },
		{ "type": "integer", "index": 6, "name": "#LOF", "min": 447, "max": 876 },
		{ "type": "integer", "index": 7, "name": "#LoF enriched", "min": 86, "max": 488 }
	],
	"sets": [
		{ "format": "binary", "start": 1, "end": 5 }
	]

}
