Gene;NP-C-001;NP-C-002;NP-C-003;NP-C-004;NP-C-005;NP-C-006;NP-C-007;NP-C-008;NP-C-009;NP-C-010;NP-C-011;NP-C-012;NP-C-013;Enrichment
Sphingomyelin synthesis;1;1;1;1;1;1;1;1;1;0;1;1;1;89
Ceramide  synthesis;1;1;0;1;1;1;0;1;1;0;1;1;1;83.3333333333333
Ganglioside catabolism;1;1;0;1;1;0;1;1;1;1;0;1;0;75
Glutathione binding;1;1;1;1;1;1;1;1;0;1;0;1;1;91.6666666666667
